<svg id="Layer_1" data-name="Layer 1" xmlns="http://www.w3.org/2000/svg" viewBox="0 0 48 47.92">
  <defs>
    <style>
      .cls-1 {
        fill: #fbb03b;
      }

      .cls-2 {
        fill: #fff;
      }
    </style>
  </defs>
  <title>warning-repeat</title>
  <path class="cls-1" d="M0,24a24,24,0,1,1,24,24A24,24,0,0,1,0,24"/>
  <path class="cls-2" d="M19.87,21.09a2,2,0,0,1,2-2h4.26a2,2,0,0,1,2,2v16.6a2,2,0,0,1-2,2H21.87a2,2,0,0,1-2-2Zm0-10.48a2,2,0,0,1,2-2h4.26a2,2,0,0,1,2,2v4.25a2,2,0,0,1-2,2H21.87a2,2,0,0,1-2-2Z"/>
</svg>
